{
  "page": 1,
  "total_results": 10000,
  "total_pages": 500,
  "results": [
    {
      "popularity": 439.564,
      "vote_count": 4901,
      "video": false,
      "poster_path": "/udDclJoHjfjb8Ekgsd4FDteOkCU.jpg",
      "id": 475557,
      "adult": false,
      "backdrop_path": "/n6bUvigpRFqSwmPp1m2YADdbRBc.jpg",
      "original_language": "en",
      "original_title": "Joker",
      "genre_ids": [80, 18, 53],
      "title": "Joker",
      "vote_average": 8.5,
      "overview": "During the 1980s, a failed stand-up comedian is driven insane and turns to a life of crime and chaos in Gotham City while becoming an infamous psychopathic crime figure.",
      "release_date": "2019-10-04"
    },
    {
      "popularity": 135.321,
      "vote_count": 72,
      "video": false,
      "poster_path": "/4E2lyUGLEr3yH4q6kJxPkQUhX7n.jpg",
      "id": 568012,
      "adult": false,
      "backdrop_path": "/iGnCzXEx0cFlUbpyAMeHwHWhPhx.jpg",
      "original_language": "ja",
      "original_title": "ワンピーススタンピード",
      "genre_ids": [28, 12, 16],
      "title": "One Piece: Stampede",
      "vote_average": 7.5,
      "overview": "One Piece: Stampede is a stand-alone film that celebrates the anime's 20th Anniversary and takes place outside the canon of the \"One Piece\" TV series. Monkey D. Luffy and his Straw Hat pirate crew are invited to a massive Pirate Festival that brings many of the most iconic characters from throughout the franchise to participate in competition with the Straw Hats to find Roger's treasure. It also pits the Straw Hats against a new enemy named Bullet, a former member of Roger's crew.",
      "release_date": "2019-10-24"
    },
    {
      "popularity": 139.925,
      "vote_count": 3393,
      "video": false,
      "poster_path": "/2bXbqYdUdNVa8VIWXVfclP2ICtT.jpg",
      "id": 420818,
      "adult": false,
      "backdrop_path": "/nRXO2SnOA75OsWhNhXstHB8ZmI3.jpg",
      "original_language": "en",
      "original_title": "The Lion King",
      "genre_ids": [12, 16, 18],
      "title": "The Lion King",
      "vote_average": 7.1,
      "overview": "Simba idolises his father, King Mufasa, and takes to heart his own royal destiny. But not everyone in the kingdom celebrates the new cub's arrival. Scar, Mufasa's brother—and former heir to the throne—has plans of his own. The battle for Pride Rock is ravaged with betrayal, tragedy and drama, ultimately resulting in Simba's exile. With help from a curious pair of newfound friends, Simba will have to figure out how to grow up and take back what is rightfully his.",
      "release_date": "2019-07-19"
    },
    {
      "popularity": 148.525,
      "vote_count": 1761,
      "video": false,
      "poster_path": "/kvpNZAQow5es1tSY6XW2jAZuPPG.jpg",
      "id": 384018,
      "adult": false,
      "backdrop_path": "/qAhedRxRYWZAgZ8O8pHIl6QHdD7.jpg",
      "original_language": "en",
      "original_title": "Fast & Furious Presents: Hobbs & Shaw",
      "genre_ids": [28, 12, 35],
      "title": "Fast & Furious Presents: Hobbs & Shaw",
      "vote_average": 6.5,
      "overview": "Ever since US Diplomatic Security Service Agent Hobbs and lawless outcast Shaw first faced off, they just have swapped smacks and bad words. But when cyber-genetically enhanced anarchist Brixton's ruthless actions threaten the future of humanity, both join forces to defeat him. (A spin-off of “The Fate of the Furious,” focusing on Johnson's Luke Hobbs and Statham's Deckard Shaw.)",
      "release_date": "2019-08-02"
    },
    {
      "popularity": 97.18,
      "vote_count": 328,
      "video": false,
      "poster_path": "/tximyCXMEnWIIyOy9STkOduUprG.jpg",
      "id": 521777,
      "adult": false,
      "backdrop_path": "/zIZv4pPJRg3YTnWWuotwXnYu1fM.jpg",
      "original_language": "en",
      "original_title": "Good Boys",
      "genre_ids": [35],
      "title": "Good Boys",
      "vote_average": 6.6,
      "overview": "A group of young boys on the cusp of becoming teenagers embark on an epic quest to fix their broken drone before their parents get home.",
      "release_date": "2019-08-16"
    },
    {
      "popularity": 106.847,
      "vote_count": 2357,
      "video": false,
      "poster_path": "/cCTJPelKGLhALq3r51A9uMonxKj.jpg",
      "id": 320288,
      "adult": false,
      "backdrop_path": "/cjRUhKyt2Jo3V1KNzc5tpPNfccG.jpg",
      "original_language": "en",
      "original_title": "Dark Phoenix",
      "genre_ids": [28, 12, 878],
      "title": "Dark Phoenix",
      "vote_average": 6.1,
      "overview": "The X-Men face their most formidable and powerful foe when one of their own, Jean Grey, starts to spiral out of control. During a rescue mission in outer space, Jean is nearly killed when she's hit by a mysterious cosmic force. Once she returns home, this force not only makes her infinitely more powerful, but far more unstable. The X-Men must now band together to save her soul and battle aliens that want to use Grey's new abilities to rule the galaxy.",
      "release_date": "2019-06-07"
    },
    {
      "popularity": 103.669,
      "vote_count": 3981,
      "video": false,
      "poster_path": "/3iYQTLGoy7QnjcUYRJy4YrAgGvp.jpg",
      "id": 420817,
      "adult": false,
      "backdrop_path": "/rVqY0Bo4Npf6EIONUROxjYAJfmD.jpg",
      "original_language": "en",
      "original_title": "Aladdin",
      "genre_ids": [12, 35, 14, 10749, 10751],
      "title": "Aladdin",
      "vote_average": 7.1,
      "overview": "A kindhearted street urchin named Aladdin embarks on a magical adventure after finding a lamp that releases a wisecracking genie while a power-hungry Grand Vizier vies for the same lamp that has the power to make their deepest wishes come true.",
      "release_date": "2019-05-24"
    },
    {
      "popularity": 100.087,
      "vote_count": 4855,
      "video": false,
      "poster_path": "/lcq8dVxeeOqHvvgcte707K0KVx5.jpg",
      "id": 429617,
      "adult": false,
      "backdrop_path": "/5myQbDzw3l8K9yofUXRJ4UTVgam.jpg",
      "original_language": "en",
      "original_title": "Spider-Man: Far from Home",
      "genre_ids": [28, 12, 878],
      "title": "Spider-Man: Far from Home",
      "vote_average": 7.6,
      "overview": "Peter Parker and his friends go on a summer trip to Europe. However, they will hardly be able to rest - Peter will have to agree to help Nick Fury uncover the mystery of creatures that cause natural disasters and destruction throughout the continent.",
      "release_date": "2019-07-02"
    },
    {
      "popularity": 97.537,
      "vote_count": 164,
      "video": false,
      "poster_path": "/g4z7mDmJmx23vsVg6XNWcnXb6gc.jpg",
      "id": 480105,
      "adult": false,
      "backdrop_path": "/3uG3aOhEzFCjcQulsJQiAzLSrw8.jpg",
      "original_language": "en",
      "original_title": "47 Meters Down: Uncaged",
      "genre_ids": [12, 27, 53],
      "title": "47 Meters Down: Uncaged",
      "vote_average": 5.1,
      "overview": "A group of backpackers diving in a ruined underwater city discover that they have stumbled into the territory of the ocean's deadliest shark species.",
      "release_date": "2019-08-16"
    },
    {
      "popularity": 77.57,
      "vote_count": 482,
      "video": false,
      "poster_path": "/uTALxjQU8e1lhmNjP9nnJ3t2pRU.jpg",
      "id": 453405,
      "adult": false,
      "backdrop_path": "/c3F4P2oauA7IQmy4hM0OmRt2W7d.jpg",
      "original_language": "en",
      "original_title": "Gemini Man",
      "genre_ids": [28, 53],
      "title": "Gemini Man",
      "vote_average": 5.7,
      "overview": "Henry Brogen, an aging assassin tries to get out of the business but finds himself in the ultimate battle: fighting his own clone who is 25 years younger than him and at the peak of his abilities.",
      "release_date": "2019-10-11"
    },
    {
      "popularity": 65.706,
      "vote_count": 540,
      "video": false,
      "poster_path": "/q5298SICFzqMcKtQoBktk8p6FH.jpg",
      "id": 417384,
      "adult": false,
      "backdrop_path": "/qBI3Spq93lNxGzecdGpbwV5lOvU.jpg",
      "original_language": "en",
      "original_title": "Scary Stories to Tell in the Dark",
      "genre_ids": [27, 53],
      "title": "Scary Stories to Tell in the Dark",
      "vote_average": 6.3,
      "overview": "Mill Valley, Pennsylvania, Halloween night, 1968. After playing a joke on a school bully, Sarah and her friends decide to sneak into a supposedly haunted house that once belonged to the powerful Bellows family, unleashing dark forces that they will be unable to control.",
      "release_date": "2019-08-09"
    },
    {
      "popularity": 65.969,
      "vote_count": 2922,
      "video": false,
      "poster_path": "/w9kR8qbmQ01HwnvK4alvnQ2ca0L.jpg",
      "id": 301528,
      "adult": false,
      "backdrop_path": "/m67smI1IIMmYzCl9axvKNULVKLr.jpg",
      "original_language": "en",
      "original_title": "Toy Story 4",
      "genre_ids": [12, 16, 35, 14, 10751],
      "title": "Toy Story 4",
      "vote_average": 7.6,
      "overview": "Woody has always been confident about his place in the world and that his priority is taking care of his kid, whether that's Andy or Bonnie. But when Bonnie adds a reluctant new toy called \"Forky\" to her room, a road trip adventure alongside old and new friends will show Woody how big the world can be for a toy.",
      "release_date": "2019-06-21"
    },
    {
      "popularity": 66.334,
      "vote_count": 38,
      "video": false,
      "poster_path": "/MBiKqTsouYqAACLYNDadsjhhC0.jpg",
      "id": 486589,
      "adult": false,
      "backdrop_path": "/bga3i5jcejBekr2FCGJga1fYCh.jpg",
      "original_language": "en",
      "original_title": "Red Shoes and the Seven Dwarfs",
      "genre_ids": [16, 10749],
      "title": "Red Shoes and the Seven Dwarfs",
      "vote_average": 5.7,
      "overview": "Princes who have been turned into Dwarfs seek the red shoes of a lady in order to break the spell, although it will not be easy.",
      "release_date": "2019-08-01"
    },
    {
      "popularity": 67.088,
      "vote_count": 3128,
      "video": false,
      "poster_path": "/ziEuG1essDuWuC5lpWUaw1uXY2O.jpg",
      "id": 458156,
      "adult": false,
      "backdrop_path": "/stemLQMLDrlpfIlZ5OjllOPT8QX.jpg",
      "original_language": "en",
      "original_title": "John Wick: Chapter 3 - Parabellum",
      "genre_ids": [28, 80, 53],
      "title": "John Wick: Chapter 3 - Parabellum",
      "vote_average": 7.1,
      "overview": "Super-assassin John Wick returns with a $14 million price tag on his head and an army of bounty-hunting killers on his trail. After killing a member of the shadowy international assassin’s guild, the High Table, John Wick is excommunicado, but the world’s most ruthless hit men and women await his every turn.",
      "release_date": "2019-05-17"
    },
    {
      "popularity": 70.145,
      "vote_count": 1867,
      "video": false,
      "poster_path": "/zfE0R94v1E8cuKAerbskfD3VfUt.jpg",
      "id": 474350,
      "adult": false,
      "backdrop_path": "/8moTOzunF7p40oR5XhlDvJckOSW.jpg",
      "original_language": "en",
      "original_title": "It Chapter Two",
      "genre_ids": [27],
      "title": "It Chapter Two",
      "vote_average": 6.9,
      "overview": "27 years after overcoming the malevolent supernatural entity Pennywise, the former members of the Losers' Club, who have grown up and moved away from Derry, are brought back together by a devastating phone call.",
      "release_date": "2019-09-06"
    },
    {
      "popularity": 66.93,
      "vote_count": 2,
      "video": false,
      "poster_path": "/ljAMsxYS3i8GlEoXAKZxaK88EAO.jpg",
      "id": 566057,
      "adult": false,
      "backdrop_path": "/uIAnWjl1PNsFL9M24KzVMmO6sdo.jpg",
      "original_language": "ja",
      "original_title": "ルパンレンジャーＶＳパトレンジャーＶＳキュウレンジャー",
      "genre_ids": [28, 12, 80, 878],
      "title": "Lupinranger VS Patranger VS Kyuranger",
      "vote_average": 5.5,
      "overview": "\"Lupinranger VS Patranger VS Kyuranger\" is an upcoming V-Cinext film between Kaitou Sentai Lupinranger VS Keisatsu Sentai Patranger and Uchu Sentai Kyuranger. The story begins when the Lupinrangers, Kairi, Touma, and Umika, are kidnapped by someone mysterious. The Patrangers are then tasked with an Abduction Case to find the missing thieves, where they run into the Kyuranger team as they pass through space. Just who exactly kidnapped them? And why did the 12 Kyurangers return to space?",
      "release_date": "2019-05-03"
    },
    {
      "popularity": 57.1,
      "vote_count": 88,
      "video": false,
      "poster_path": "/uoAqJg7ZSmftnBGOkupU1ySZQU0.jpg",
      "id": 528888,
      "adult": false,
      "backdrop_path": "/8FuiFasbeFQj24Vqx6JqSCqj5lO.jpg",
      "original_language": "en",
      "original_title": "Dolemite Is My Name",
      "genre_ids": [35, 18, 36],
      "title": "Dolemite Is My Name",
      "vote_average": 7.3,
      "overview": "The story of Rudy Ray Moore, who created the iconic big screen pimp character Dolemite in the 1970s.",
      "release_date": "2019-09-07"
    },
    {
      "popularity": 51.245,
      "vote_count": 2521,
      "video": false,
      "poster_path": "/8j58iEBw9pOXFD2L0nt0ZXeHviB.jpg",
      "id": 466272,
      "adult": false,
      "backdrop_path": "/kKTPv9LKKs5L3oO1y5FNObxAPWI.jpg",
      "original_language": "en",
      "original_title": "Once Upon a Time... in Hollywood",
      "genre_ids": [35, 18],
      "title": "Once Upon a Time... in Hollywood",
      "vote_average": 7.6,
      "overview": "A faded television actor and his stunt double strive to achieve fame and success in the film industry during the final years of Hollywood's Golden Age in 1969 Los Angeles.",
      "release_date": "2019-07-26"
    },
    {
      "popularity": 44.772,
      "vote_count": 255,
      "video": false,
      "poster_path": "/ebe8hJRCwdflNQbUjRrfmqtUiNi.jpg",
      "id": 454640,
      "adult": false,
      "backdrop_path": "/k7sE3loFwuU2mqf7FbZBeE3rjBa.jpg",
      "original_language": "en",
      "original_title": "The Angry Birds Movie 2",
      "genre_ids": [12, 16, 35, 10751],
      "title": "The Angry Birds Movie 2",
      "vote_average": 6.4,
      "overview": "Red, Chuck, Bomb and the rest of their feathered friends are surprised when a green pig suggests that they put aside their differences and unite to fight a common threat. Aggressive birds from an island covered in ice are planning to use an elaborate weapon to destroy the fowl and swine.",
      "release_date": "2019-08-14"
    },
    {
      "popularity": 57.473,
      "vote_count": 697,
      "video": false,
      "poster_path": "/fgGzTEoNxptCRtEOpOPvIEdlxAq.jpg",
      "id": 535581,
      "adult": false,
      "backdrop_path": "/cXyfAViYly0Lk2CVpEKgYbt9wKQ.jpg",
      "original_language": "en",
      "original_title": "The Dead Don't Die",
      "genre_ids": [35, 14, 27],
      "title": "The Dead Don't Die",
      "vote_average": 5.5,
      "overview": "In a small peaceful town, zombies suddenly rise to terrorize the town. Now three bespectacled police officers and a strange Scottish morgue expert must band together to defeat the undead.",
      "release_date": "2019-06-14"
    }
  ]
}
